simulation/qsim/LogicalStep_Lab4.msim.vcd
$comment
	File created using the following command:
		vcd file LogicalStep_Lab4.msim.vcd -direction
$end
$date
	Sun Aug 09 14:14:25 2020
$end
$version
	ModelSim Version 10.5b
$end
$timescale
	1ps
$end

$scope module logicalstep_lab4_top_vhd_vec_tst $end
$var wire 1 ! Clk $end
$var wire 1 " leds [15] $end
$var wire 1 # leds [14] $end
$var wire 1 $ leds [13] $end
$var wire 1 % leds [12] $end
$var wire 1 & leds [11] $end
$var wire 1 ' leds [10] $end
$var wire 1 ( leds [9] $end
$var wire 1 ) leds [8] $end
$var wire 1 * leds [7] $end
$var wire 1 + leds [6] $end
$var wire 1 , leds [5] $end
$var wire 1 - leds [4] $end
$var wire 1 . leds [3] $end
$var wire 1 / leds [2] $end
$var wire 1 0 leds [1] $end
$var wire 1 1 leds [0] $end
$var wire 1 2 pb [3] $end
$var wire 1 3 pb [2] $end
$var wire 1 4 pb [1] $end
$var wire 1 5 pb [0] $end
$var wire 1 6 rst_n $end
$var wire 1 7 sw [7] $end
$var wire 1 8 sw [6] $end
$var wire 1 9 sw [5] $end
$var wire 1 : sw [4] $end
$var wire 1 ; sw [3] $end
$var wire 1 < sw [2] $end
$var wire 1 = sw [1] $end
$var wire 1 > sw [0] $end

$scope module i1 $end
$var wire 1 ? gnd $end
$var wire 1 @ vcc $end
$var wire 1 A unknown $end
$var wire 1 B devoe $end
$var wire 1 C devclrn $end
$var wire 1 D devpor $end
$var wire 1 E ww_devoe $end
$var wire 1 F ww_devclrn $end
$var wire 1 G ww_devpor $end
$var wire 1 H ww_Clk $end
$var wire 1 I ww_rst_n $end
$var wire 1 J ww_pb [3] $end
$var wire 1 K ww_pb [2] $end
$var wire 1 L ww_pb [1] $end
$var wire 1 M ww_pb [0] $end
$var wire 1 N ww_sw [7] $end
$var wire 1 O ww_sw [6] $end
$var wire 1 P ww_sw [5] $end
$var wire 1 Q ww_sw [4] $end
$var wire 1 R ww_sw [3] $end
$var wire 1 S ww_sw [2] $end
$var wire 1 T ww_sw [1] $end
$var wire 1 U ww_sw [0] $end
$var wire 1 V ww_leds [15] $end
$var wire 1 W ww_leds [14] $end
$var wire 1 X ww_leds [13] $end
$var wire 1 Y ww_leds [12] $end
$var wire 1 Z ww_leds [11] $end
$var wire 1 [ ww_leds [10] $end
$var wire 1 \ ww_leds [9] $end
$var wire 1 ] ww_leds [8] $end
$var wire 1 ^ ww_leds [7] $end
$var wire 1 _ ww_leds [6] $end
$var wire 1 ` ww_leds [5] $end
$var wire 1 a ww_leds [4] $end
$var wire 1 b ww_leds [3] $end
$var wire 1 c ww_leds [2] $end
$var wire 1 d ww_leds [1] $end
$var wire 1 e ww_leds [0] $end
$var wire 1 f \pb[3]~input_o\ $end
$var wire 1 g \leds[0]~output_o\ $end
$var wire 1 h \leds[1]~output_o\ $end
$var wire 1 i \leds[2]~output_o\ $end
$var wire 1 j \leds[3]~output_o\ $end
$var wire 1 k \leds[4]~output_o\ $end
$var wire 1 l \leds[5]~output_o\ $end
$var wire 1 m \leds[6]~output_o\ $end
$var wire 1 n \leds[7]~output_o\ $end
$var wire 1 o \leds[8]~output_o\ $end
$var wire 1 p \leds[9]~output_o\ $end
$var wire 1 q \leds[10]~output_o\ $end
$var wire 1 r \leds[11]~output_o\ $end
$var wire 1 s \leds[12]~output_o\ $end
$var wire 1 t \leds[13]~output_o\ $end
$var wire 1 u \leds[14]~output_o\ $end
$var wire 1 v \leds[15]~output_o\ $end
$var wire 1 w \Clk~input_o\ $end
$var wire 1 x \rst_n~input_o\ $end
$var wire 1 y \inst_extension_controller|ext_shift~1_combout\ $end
$var wire 1 z \pb[2]~input_o\ $end
$var wire 1 { \inst_motion_controller|r0~q\ $end
$var wire 1 | \inst_motion_controller|r1~q\ $end
$var wire 1 } \inst_motion_controller|enable_y_out~0_combout\ $end
$var wire 1 ~ \inst_motion_controller|enable_y_out~1_combout\ $end
$var wire 1 !! \sw[7]~input_o\ $end
$var wire 1 "! \sw[3]~input_o\ $end
$var wire 1 #! \sw[2]~input_o\ $end
$var wire 1 $! \inst_counter_y|ud_bin_counter[1]~7_cout\ $end
$var wire 1 %! \inst_counter_y|ud_bin_counter[1]~8_combout\ $end
$var wire 1 &! \inst_counter_y|ud_bin_counter[1]~9\ $end
$var wire 1 '! \inst_counter_y|ud_bin_counter[2]~11\ $end
$var wire 1 (! \inst_counter_y|ud_bin_counter[3]~12_combout\ $end
$var wire 1 )! \inst_compare_y|agtb_4bit~1_combout\ $end
$var wire 1 *! \sw[1]~input_o\ $end
$var wire 1 +! \sw[0]~input_o\ $end
$var wire 1 ,! \inst_compare_y|agtb_4bit~2_combout\ $end
$var wire 1 -! \inst_compare_y|agtb_4bit~3_combout\ $end
$var wire 1 .! \inst_counter_y|process_0~0_combout\ $end
$var wire 1 /! \inst_counter_y|process_0~1_combout\ $end
$var wire 1 0! \inst_counter_y|ud_bin_counter[2]~10_combout\ $end
$var wire 1 1! \inst_compare_y|agtb_4bit~0_combout\ $end
$var wire 1 2! \inst_motion_controller|enable_y_out~2_combout\ $end
$var wire 1 3! \inst_counter_y|ud_bin_counter~3_combout\ $end
$var wire 1 4! \inst_counter_y|ud_bin_counter~4_combout\ $end
$var wire 1 5! \inst_counter_y|ud_bin_counter[0]~5_combout\ $end
$var wire 1 6! \inst_compare_y|aeqb_4bit~0_combout\ $end
$var wire 1 7! \inst_compare_y|aeqb_4bit~combout\ $end
$var wire 1 8! \inst_motion_controller|x_tgt[3]~0_combout\ $end
$var wire 1 9! \inst_motion_controller|y_que[0]~0_combout\ $end
$var wire 1 :! \sw[6]~input_o\ $end
$var wire 1 ;! \inst_counter_x|ud_bin_counter[1]~7_cout\ $end
$var wire 1 <! \inst_counter_x|ud_bin_counter[1]~8_combout\ $end
$var wire 1 =! \inst_counter_x|ud_bin_counter[1]~9\ $end
$var wire 1 >! \inst_counter_x|ud_bin_counter[2]~11\ $end
$var wire 1 ?! \inst_counter_x|ud_bin_counter[3]~12_combout\ $end
$var wire 1 @! \inst_compare_x|agtb_4bit~1_combout\ $end
$var wire 1 A! \sw[5]~input_o\ $end
$var wire 1 B! \sw[4]~input_o\ $end
$var wire 1 C! \inst_compare_x|agtb_4bit~2_combout\ $end
$var wire 1 D! \inst_compare_x|agtb_4bit~3_combout\ $end
$var wire 1 E! \inst_counter_x|process_0~0_combout\ $end
$var wire 1 F! \inst_counter_x|process_0~1_combout\ $end
$var wire 1 G! \inst_counter_x|ud_bin_counter[2]~10_combout\ $end
$var wire 1 H! \inst_compare_x|agtb_4bit~0_combout\ $end
$var wire 1 I! \inst_motion_controller|enable_x_out~0_combout\ $end
$var wire 1 J! \inst_counter_x|ud_bin_counter~3_combout\ $end
$var wire 1 K! \inst_counter_x|ud_bin_counter~4_combout\ $end
$var wire 1 L! \inst_counter_x|ud_bin_counter[0]~5_combout\ $end
$var wire 1 M! \inst_compare_x|aeqb_4bit~0_combout\ $end
$var wire 1 N! \inst_motion_controller|decoder_section~0_combout\ $end
$var wire 1 O! \inst_motion_controller|decoder_section~1_combout\ $end
$var wire 1 P! \inst_motion_controller|back_to_idle~0_combout\ $end
$var wire 1 Q! \inst_motion_controller|back_to_idle~combout\ $end
$var wire 1 R! \inst_motion_controller|next_state~0_combout\ $end
$var wire 1 S! \inst_motion_controller|current_state~q\ $end
$var wire 1 T! \inst_motion_controller|en_ext~combout\ $end
$var wire 1 U! \pb[1]~input_o\ $end
$var wire 1 V! \inst_extension_controller|r0~q\ $end
$var wire 1 W! \inst_extension_controller|r1~q\ $end
$var wire 1 X! \inst_extension_controller|grapple~0_combout\ $end
$var wire 1 Y! \inst_extension_controller|ext_shift~2_combout\ $end
$var wire 1 Z! \inst_extension_controller|ext_shift~3_combout\ $end
$var wire 1 [! \inst_extension_controller|ext_shift~combout\ $end
$var wire 1 \! \inst_extend_shifter|sreg~3_combout\ $end
$var wire 1 ]! \inst_extension_controller|ext_en~0_combout\ $end
$var wire 1 ^! \inst_extension_controller|ext_en~combout\ $end
$var wire 1 _! \inst_extend_shifter|sreg~2_combout\ $end
$var wire 1 `! \inst_extend_shifter|sreg~1_combout\ $end
$var wire 1 a! \inst_extend_shifter|sreg~0_combout\ $end
$var wire 1 b! \inst_extension_controller|ext_shift~0_combout\ $end
$var wire 1 c! \inst_extension_controller|ext_stat~0_combout\ $end
$var wire 1 d! \inst_extension_controller|ext_stat~combout\ $end
$var wire 1 e! \inst_motion_controller|sys_fault~combout\ $end
$var wire 1 f! \pb[0]~input_o\ $end
$var wire 1 g! \inst_grapple_controller|r0~q\ $end
$var wire 1 h! \inst_extension_controller|grapple~1_combout\ $end
$var wire 1 i! \inst_extension_controller|grapple~combout\ $end
$var wire 1 j! \inst_grapple_controller|r1~q\ $end
$var wire 1 k! \inst_grapple_controller|grp_stat~0_combout\ $end
$var wire 1 l! \inst_grapple_controller|grp_stat~q\ $end
$var wire 1 m! \inst_counter_y|ud_bin_counter\ [3] $end
$var wire 1 n! \inst_counter_y|ud_bin_counter\ [2] $end
$var wire 1 o! \inst_counter_y|ud_bin_counter\ [1] $end
$var wire 1 p! \inst_counter_y|ud_bin_counter\ [0] $end
$var wire 1 q! \inst_motion_controller|x_que\ [3] $end
$var wire 1 r! \inst_motion_controller|x_que\ [2] $end
$var wire 1 s! \inst_motion_controller|x_que\ [1] $end
$var wire 1 t! \inst_motion_controller|x_que\ [0] $end
$var wire 1 u! \inst_counter_x|ud_bin_counter\ [3] $end
$var wire 1 v! \inst_counter_x|ud_bin_counter\ [2] $end
$var wire 1 w! \inst_counter_x|ud_bin_counter\ [1] $end
$var wire 1 x! \inst_counter_x|ud_bin_counter\ [0] $end
$var wire 1 y! \inst_extend_shifter|sreg\ [3] $end
$var wire 1 z! \inst_extend_shifter|sreg\ [2] $end
$var wire 1 {! \inst_extend_shifter|sreg\ [1] $end
$var wire 1 |! \inst_extend_shifter|sreg\ [0] $end
$var wire 1 }! \inst_motion_controller|y_tgt\ [3] $end
$var wire 1 ~! \inst_motion_controller|y_tgt\ [2] $end
$var wire 1 !" \inst_motion_controller|y_tgt\ [1] $end
$var wire 1 "" \inst_motion_controller|y_tgt\ [0] $end
$var wire 1 #" \inst_motion_controller|x_tgt\ [3] $end
$var wire 1 $" \inst_motion_controller|x_tgt\ [2] $end
$var wire 1 %" \inst_motion_controller|x_tgt\ [1] $end
$var wire 1 &" \inst_motion_controller|x_tgt\ [0] $end
$var wire 1 '" \inst_motion_controller|y_que\ [3] $end
$var wire 1 (" \inst_motion_controller|y_que\ [2] $end
$var wire 1 )" \inst_motion_controller|y_que\ [1] $end
$var wire 1 *" \inst_motion_controller|y_que\ [0] $end
$upscope $end
$upscope $end
$enddefinitions $end
#0
$dumpvars
0!
06
0?
1@
xA
1B
1C
1D
1E
1F
1G
0H
0I
0f
0g
xh
0i
0j
0k
0l
0m
0n
0o
0p
0q
0r
0s
0t
0u
0v
0w
0x
0y
0z
0{
0|
0}
0~
1!!
1"!
1#!
0$!
1%!
1&!
0'!
1(!
0)!
0*!
0+!
0,!
0-!
1.!
0/!
10!
11!
02!
03!
04!
05!
06!
07!
08!
09!
1:!
0;!
1<!
1=!
0>!
1?!
0@!
1A!
1B!
0C!
0D!
1E!
0F!
1G!
1H!
0I!
0J!
0K!
0L!
0M!
0N!
0O!
0P!
xQ!
0R!
0S!
xT!
0U!
0V!
0W!
0X!
0Y!
xZ!
x[!
x\!
1]!
0^!
0_!
0`!
0a!
1b!
1c!
xd!
0e!
0f!
0g!
0h!
xi!
0j!
0k!
0l!
02
03
04
05
17
18
19
1:
1;
1<
0=
0>
0"
0#
0$
0%
0&
0'
0(
0)
0*
0+
0,
0-
0.
0/
x0
01
0J
0K
0L
0M
1N
1O
1P
1Q
1R
1S
0T
0U
0V
0W
0X
0Y
0Z
0[
0\
0]
0^
0_
0`
0a
0b
0c
xd
0e
0m!
0n!
0o!
0p!
0q!
0r!
0s!
0t!
0u!
0v!
0w!
0x!
0y!
0z!
0{!
0|!
0}!
0~!
0!"
0""
0#"
0$"
0%"
0&"
0'"
0("
0)"
0*"
$end
#5000
1!
1H
1w
#10000
0!
0H
0w
#15000
1!
1H
1w
#20000
0!
0H
0w
#25000
1!
1H
1w
#30000
0!
0H
0w
#35000
1!
1H
1w
#40000
0!
0H
0w
#45000
1!
1H
1w
#50000
0!
16
0H
1I
1x
0w
1y
1T!
0Z!
x]!
0]!
0d!
0i!
0h
0d
00
#55000
1!
1H
1w
#60000
0!
0H
0w
#65000
1!
1H
1w
#70000
0!
13
0H
1K
1z
0w
#75000
1!
1H
1w
1{
#80000
0!
03
0H
0K
0z
0w
#85000
1!
1H
1w
0{
1|
1}
19!
1R!
1'"
1("
1q!
1r!
1s!
1t!
12!
1I!
1O!
#90000
0!
0H
0w
#95000
1!
1H
1w
0|
1S!
1~
18!
1P!
0T!
0}
09!
xR!
0O!
1]!
0Q!
1}!
1~!
1#"
1$"
1%"
1&"
02!
0I!
1C!
1M!
1@!
0H!
1)!
01!
1R!
1Q!
0R!
12!
17!
1-!
08!
1I!
1N!
1D!
1F!
1K!
1O!
1/!
14!
15!
0%!
00!
0(!
0Q!
1L!
0<!
0G!
0?!
1R!
#100000
0!
0H
0w
#105000
1!
1H
1w
1p!
1x!
1s
1o
1;!
1J!
0L!
1$!
13!
05!
16!
1Y
1]
1%!
1<!
1)
1%
#110000
0!
0H
0w
#115000
1!
1H
1w
1o!
0p!
1w!
0x!
0s
1t
0o
1p
0;!
1L!
0<!
0=!
0$!
15!
0%!
0&!
0Y
1X
0]
1\
10!
1%!
1&!
1G!
1<!
1=!
0)
1(
0%
1$
0G!
00!
#120000
0!
0H
0w
#125000
1!
1H
1w
1p!
1x!
1s
1o
1;!
0C!
0L!
0M!
1$!
05!
1Y
1]
0%!
0&!
0<!
0=!
1)
1%
1G!
10!
#130000
0!
0H
0w
#135000
1!
1H
1w
0o!
1n!
0p!
0w!
1v!
0x!
0s
1u
0t
0o
1q
0p
0;!
1L!
0G!
1>!
1<!
1=!
1C!
1M!
0$!
15!
00!
1'!
1%!
1&!
06!
0Y
1W
0X
0]
1[
0\
10!
0'!
1(!
0%!
1G!
0>!
1?!
0<!
0)
0(
1'
0%
0$
1#
0?!
0(!
#140000
0!
0H
0w
#145000
1!
1H
1w
1p!
1x!
1s
1o
1;!
0L!
1$!
05!
16!
1Y
1]
1%!
1<!
1)
1%
#150000
0!
07
09
1=
1>
0H
1U
1T
0P
0N
0!!
0A!
1*!
1+!
0w
#155000
1!
1H
1w
1o!
0p!
1w!
0x!
0s
1t
0o
1p
0;!
1L!
0<!
0=!
0$!
15!
0%!
0&!
0Y
1X
0]
1\
00!
1'!
1%!
1&!
0G!
1>!
1<!
1=!
0)
1(
0%
1$
1G!
0>!
1?!
10!
0'!
1(!
0(!
0?!
#160000
0!
0H
0w
#165000
1!
1H
1w
1p!
1x!
1s
1o
1;!
0C!
0L!
0M!
1$!
05!
1Y
1]
0%!
0&!
0<!
0=!
1)
1%
0G!
1>!
00!
1'!
1(!
1?!
#170000
0!
0H
0w
#175000
1!
1H
1w
0o!
1m!
0n!
0p!
0w!
1u!
0v!
0x!
0s
0u
1v
0t
0o
0q
1r
0p
0;!
1L!
1G!
0>!
0?!
1<!
1=!
1C!
1M!
0$!
15!
10!
0'!
0(!
1%!
1&!
06!
0Y
0W
1V
0X
0]
0[
1Z
0\
00!
1(!
0%!
0G!
1?!
0<!
0)
0(
0'
1&
0%
0$
0#
1"
#180000
0!
13
0H
1K
1z
0w
#185000
1!
1H
1w
1{
1p!
1x!
1s
1o
1;!
0L!
1$!
05!
16!
1Y
1]
1%!
1<!
1)
1%
#190000
0!
03
0H
0K
0z
0w
#195000
1!
1H
1w
0{
1|
1o!
0p!
1w!
0x!
0s
1t
0o
1p
0;!
1L!
0<!
0=!
0$!
15!
0%!
0&!
19!
0Y
1X
0]
1\
1)"
1*"
0q!
0s!
10!
1%!
1&!
1G!
1<!
1=!
0)
1(
0%
1$
0G!
00!
#200000
0!
0H
0w
#205000
1!
1H
1w
0|
1p!
1x!
1s
1o
1;!
0C!
0L!
0M!
1$!
05!
09!
1Y
1]
0%!
0&!
0<!
0=!
1)
1%
1G!
10!
#210000
0!
0H
0w
#215000
1!
1H
1w
0o!
1n!
0p!
0w!
1v!
0x!
0s
1u
0t
0o
1q
0p
0;!
1L!
0G!
1>!
0@!
1H!
1<!
1=!
1C!
1M!
0$!
15!
00!
1'!
0)!
11!
1%!
1&!
06!
0Y
1W
0X
0]
1[
0\
10!
0'!
02!
07!
0-!
0(!
0%!
1G!
0>!
0?!
0<!
0)
0(
1'
0%
0$
1#
1?!
0/!
04!
1(!
05!
1%!
00!
1'!
0(!
1(!
#220000
0!
0=
0>
08
0:
0;
0<
0H
0U
0T
0S
0R
0Q
0O
0:!
0B!
0"!
0#!
0*!
0+!
0w
#225000
1!
1H
1w
1x!
1s
1;!
0L!
1Y
1<!
1%
#230000
0!
14
0H
1L
1U!
0w
#235000
1!
1H
1w
1w!
0x!
1V!
0s
1t
0;!
1L!
0<!
0=!
0Y
1X
0G!
1>!
1<!
1=!
0%
1$
1G!
0>!
0?!
1?!
#240000
0!
04
0H
0L
0U!
0w
#245000
1!
1H
1w
1x!
0V!
1W!
1s
1Y!
1;!
0C!
0E!
0L!
0M!
1Y
18!
0I!
0N!
0F!
0K!
0D!
0<!
0=!
1%
1L!
1<!
1>!
0?!
0O!
1!"
1""
0#"
0%"
1M!
0H!
1,!
16!
1Q!
1?!
0R!
12!
17!
1-!
08!
1I!
1N!
1K!
1O!
1/!
14!
15!
0%!
10!
0'!
0(!
0Q!
0L!
1R!
1(!
#250000
0!
0H
0w
#255000
1!
1H
1w
1p!
0x!
0W!
0s
1o
0Y!
0;!
1E!
1L!
1$!
05!
0Y
1]
1%!
0<!
1)
0%
#260000
0!
0H
0w
#265000
1!
1H
1w
1o!
0p!
0w!
1x!
1s
0t
0o
1p
1;!
0L!
1<!
1=!
0M!
0$!
15!
0%!
0&!
1Y
0X
0]
1\
00!
1'!
1%!
1&!
0G!
0<!
0=!
0)
1(
1%
0$
1G!
10!
0'!
0(!
1(!
#270000
0!
0H
0w
#275000
1!
1H
1w
1p!
0x!
0s
1o
0;!
1C!
1L!
1M!
1$!
0,!
0.!
05!
06!
0Y
1]
02!
07!
0/!
04!
0-!
0%!
0&!
1<!
1=!
1)
0%
0G!
15!
1%!
1'!
0(!
1(!
#280000
0!
0H
0w
#285000
1!
1H
1w
1w!
0v!
1x!
1s
0u
1t
1;!
0L!
1G!
0>!
0<!
0=!
0C!
1Y
0W
1X
0G!
1>!
0?!
1<!
1%
1$
0#
1?!
#290000
0!
0H
0w
#295000
1!
1H
1w
0x!
0s
0;!
1L!
0Y
0<!
0%
#300000
0!
15
0H
1M
1f!
0w
#305000
1!
1H
1w
0w!
1x!
1g!
1s
0t
1;!
0L!
1<!
1=!
0M!
1Y
0X
1G!
0>!
0<!
0=!
1%
0$
0G!
1>!
0?!
1?!
#310000
0!
05
0H
0M
0f!
0w
#315000
1!
1H
1w
0x!
0g!
1j!
0s
0;!
1C!
1L!
1M!
0Y
1<!
1=!
0%
1G!
0>!
0?!
#320000
0!
0H
0w
#325000
1!
1H
1w
1w!
0u!
1v!
1x!
0j!
1s
1u
0v
1t
1;!
0L!
0G!
1>!
1?!
1H!
0<!
0=!
0C!
1Y
1W
0V
1X
1G!
0?!
1<!
1%
1$
1#
0"
#330000
0!
0H
0w
#335000
1!
1H
1w
0x!
0s
0;!
1L!
0Y
0<!
0%
#340000
0!
0H
0w
#345000
1!
1H
1w
0w!
1x!
1s
0t
1;!
0L!
1<!
1=!
0M!
1Y
0X
18!
0I!
0N!
0G!
0<!
0=!
1%
0$
1G!
0O!
0K!
1L!
1Q!
0R!
#350000
0!
0H
0w
#355000
1!
1H
1w
0S!
0~
08!
0P!
1T!
0]!
#360000
0!
0H
0w
#365000
1!
1H
1w
#370000
0!
0H
0w
#375000
1!
1H
1w
#380000
0!
0H
0w
#385000
1!
1H
1w
#390000
0!
0H
0w
#395000
1!
1H
1w
#400000
0!
0H
0w
#405000
1!
1H
1w
#410000
0!
0H
0w
#415000
1!
1H
1w
#420000
0!
0H
0w
#425000
1!
1H
1w
#430000
0!
0H
0w
#435000
1!
1H
1w
#440000
0!
14
0H
1L
1U!
0w
#445000
1!
1H
1w
1V!
#450000
0!
04
0H
0L
0U!
0w
#455000
1!
1H
1w
0V!
1W!
1Y!
1Z!
1^!
1[!
1\!
#460000
0!
0H
0w
#465000
1!
1H
1w
0W!
1y!
1n
1_!
0b!
0Y!
1^
0Z!
0y
0c!
1*
1d!
1h
1d
10
#470000
0!
0H
0w
#475000
1!
1H
1w
1z!
1m
1`!
1_
1+
#480000
0!
0H
0w
#485000
1!
1H
1w
1{!
1l
1a!
1`
1,
#490000
0!
15
0H
1M
1f!
0w
#495000
1!
1H
1w
1|!
1g!
1k
1X!
1a
1h!
1-
1i!
#500000
0!
05
0H
0M
0f!
0w
#505000
1!
1H
1w
0g!
1j!
1k!
#510000
0!
0H
0w
#515000
1!
1H
1w
0j!
1l!
1j
1b
1.
#520000
0!
0H
0w
#525000
1!
1H
1w
#530000
0!
0H
0w
#535000
1!
1H
1w
#540000
0!
15
0H
1M
1f!
0w
#545000
1!
1H
1w
1g!
#550000
0!
05
0H
0M
0f!
0w
#555000
1!
1H
1w
0g!
1j!
0k!
#560000
0!
0H
0w
#565000
1!
1H
1w
0j!
0l!
0j
0b
0.
#570000
0!
0H
0w
#575000
1!
1H
1w
#580000
0!
0H
0w
#585000
1!
1H
1w
#590000
0!
15
0H
1M
1f!
0w
#595000
1!
1H
1w
1g!
#600000
0!
05
0H
0M
0f!
0w
#605000
1!
1H
1w
0g!
1j!
1k!
#610000
0!
0H
0w
#615000
1!
1H
1w
0j!
1l!
1j
1b
1.
#620000
0!
0H
0w
#625000
1!
1H
1w
#630000
0!
0H
0w
#635000
1!
1H
1w
#640000
0!
0H
0w
#645000
1!
1H
1w
#650000
0!
14
0H
1L
1U!
0w
#655000
1!
1H
1w
1V!
#660000
0!
04
0H
0L
0U!
0w
#665000
1!
1H
1w
0V!
1W!
1Y!
1Z!
0[!
0a!
#670000
0!
0H
0w
#675000
1!
1H
1w
0W!
0|!
0k
0X!
0`!
0Y!
0a
0Z!
0h!
0-
0i!
#680000
0!
15
0H
1M
1f!
0w
#685000
1!
1H
1w
0{!
1g!
0l
0_!
0`
0,
#690000
0!
05
0H
0M
0f!
0w
#695000
1!
1H
1w
0z!
0g!
1j!
0m
0\!
0_
0+
#700000
0!
0H
0w
#705000
1!
1H
1w
0y!
0j!
0n
1b!
0^
1y
1c!
0*
0d!
0h
0d
00
#710000
0!
0H
0w
#715000
1!
1H
1w
#720000
0!
0H
0w
#725000
1!
1H
1w
#730000
0!
0H
0w
#735000
1!
1H
1w
#740000
0!
0H
0w
#745000
1!
1H
1w
#750000
0!
0H
0w
#755000
1!
1H
1w
#760000
0!
0H
0w
#765000
1!
1H
1w
#770000
0!
0H
0w
#775000
1!
1H
1w
#780000
0!
0H
0w
#785000
1!
1H
1w
#790000
0!
0H
0w
#795000
1!
1H
1w
#800000
0!
14
0H
1L
1U!
0w
#805000
1!
1H
1w
1V!
#810000
0!
04
0H
0L
0U!
0w
#815000
1!
1H
1w
0V!
1W!
1Y!
1Z!
1[!
1\!
#820000
0!
0H
0w
#825000
1!
1H
1w
0W!
1y!
1n
1_!
0b!
0Y!
1^
0Z!
0y
0c!
1*
1d!
1h
1d
10
#830000
0!
0H
0w
#835000
1!
1H
1w
1z!
1m
1`!
1_
1+
#840000
0!
0H
0w
#845000
1!
1H
1w
1{!
1l
1a!
1`
1,
#850000
0!
0H
0w
#855000
1!
1H
1w
1|!
1k
1X!
1a
1h!
1-
1i!
#860000
0!
13
0H
1K
1z
0w
#865000
1!
1H
1w
1{
#870000
0!
03
0H
0K
0z
0w
#875000
1!
1H
1w
0{
1|
1}
19!
1R!
0'"
0("
0)"
0*"
0r!
0t!
12!
1I!
1O!
1K!
14!
05!
0L!
#880000
0!
0H
0w
#885000
1!
1H
1w
0|
0p!
0x!
1S!
0s
0o
18!
1P!
0T!
1e!
0;!
1C!
1L!
1M!
0$!
1,!
1.!
15!
16!
0}
09!
0R!
0Y
0]
1g
0O!
02!
17!
1-!
0%!
08!
0I!
1D!
1<!
1=!
1N!
1]!
0Q!
0}!
0~!
0!"
0""
0$"
0&"
0)
0%
1e
0C!
0M!
0H!
0,!
01!
1R!
0^!
0G!
0K!
1O!
04!
1Q!
11
0R!
05!
0Q!
0L!
0-!
0D!
1R!
#890000
0!
0H
0w
#895000
1!
1H
1w
#900000
0!
0H
0w
#905000
1!
1H
1w
#910000
0!
0H
0w
#915000
1!
1H
1w
#920000
0!
06
0H
0I
0x
0w
0o!
0m!
0n!
0v!
0P!
0S!
0y!
0z!
0{!
0|!
1c!
0e!
0h!
0l!
0j
0g
0k
0l
0m
0n
0u
0q
0r
0p
0k!
0N!
0a!
0`!
0X!
0_!
1b!
0R!
1G!
0>!
1H!
0J!
00!
0(!
11!
1%!
1&!
03!
06!
0b
0e
0a
0`
0_
0^
0W
0[
0Z
0\
10!
0'!
07!
1?!
0O!
01
0.
0-
0,
0+
0*
0(
0'
0&
0#
1(!
#925000
1!
1H
1w
#930000
0!
0H
0w
#935000
1!
1H
1w
#940000
0!
0H
0w
#945000
1!
1H
1w
#950000
0!
0H
0w
#955000
1!
1H
1w
#960000
0!
16
0H
1I
1x
0w
1y
1T!
0]!
0d!
0i!
0h
0d
00
#965000
1!
1H
1w
#970000
0!
0H
0w
#975000
1!
1H
1w
#980000
0!
0H
0w
#985000
1!
1H
1w
#990000
0!
0H
0w
#995000
1!
1H
1w
